<svg width="10" height="17" viewBox="0 0 10 17" fill="none" xmlns="http://www.w3.org/2000/svg">
<path d="M2.33301 15.3335L8.99967 8.66683L2.33301 2.00016" stroke="white" stroke-width="2" stroke-linecap="square" stroke-linejoin="round"/>
</svg>
