<svg width="23" height="3" viewBox="0 0 23 3" fill="none" xmlns="http://www.w3.org/2000/svg">
<path d="M21.5879 1.66699L1.58789 1.66699" stroke="white" stroke-width="2" stroke-linecap="square" stroke-linejoin="round"/>
</svg>
